lab04-ctrl/xrun.log
xrun: 20.11-a001: (c) Copyright 1995-2020 Cadence Design Systems, Inc.
TOOL:	xrun	20.11-a001: Started on May 10, 2022 at 13:16:01 MST
/pkg/cadence-xcelium-/20.11.001/i686-linux/tools/bin/xrun
	typedefs.sv
	control.sv
	control_test.sv
	-licqueue
	-noievlic
xrun: *W,ENVDEPRREN: Environment Variable (IRUNOPTS) is deprecated. Use (XRUNOPTS) instead.
xrun: *W,ENVBOTHDEF: Deprecated Environment Variable (IRUNOPTS) and corresponding Xcelium variable (XRUNOPTS) have both been been defined; Xcelium variable shall override.
Recompiling... reason: file './control.sv' is newer than expected.
	expected: Tue May 10 13:13:01 2022
	actual:   Tue May 10 13:15:19 2022
xrun: *W,WKWTLK: Waiting for a Exclusive lock on file '/home/nxf87847/sv_lab/SysVlogDesVer_20_6/lab04-ctrl/xcelium.d/run.lnx86.20.11.d/.xmlib.lock'. pid:21241.
file: control.sv
	module worklib.control:sv
		errors: 0, warnings: 0
		Caching library 'worklib' ....... Done
	Elaborating the design hierarchy:
	Top level design units:
		typedefs
		control_test
xmelab: *W,DSEMEL: This SystemVerilog design will be simulated as per IEEE 1800-2009 SystemVerilog simulation semantics. Use -disable_sem2009 option for turning off SV 2009 simulation semantics.
	Building instance overlay tables: .................... Done
	Generating native compiled code:
		worklib.control_test:sv <0x2aa2eba4>
			streams:  20, words: 18434
		worklib.control:sv <0x32d91b7d>
			streams:   2, words:  6095
	Building instance specific data structures.
	Loading native compiled code:     .................... Done
	Design hierarchy summary:
		                   Instances  Unique
		Modules:                   2       2
		Verilog packages:          1       1
		Registers:                31      31
		Scalar wires:             18       -
		Vectored wires:            4       -
		Always blocks:             3       3
		Initial blocks:            4       4
		Cont. assignments:         3       4
		Pseudo assignments:       11      11
		Simulation timescale:  100ps
	Writing initial simulation snapshot: worklib.control_test:sv
xmsim: *W,ENVDEPRREN: Environment Variable (NCSIMOPTS) is deprecated. Use (XMSIMOPTS) instead.
Loading snapshot worklib.control_test:sv .................... Done
xmsim: *W,DSEM2009: This SystemVerilog design is simulated as per IEEE 1800-2009 SystemVerilog simulation semantics. Use -disable_sem2009 option for turning off SV 2009 simulation semantics.
xcelium> source /pkg/cadence-xcelium-/20.11.001/i686-linux/tools/xcelium/files/xmsimrc
xcelium> run
    0.0ns rst_=1 ph=INST_FETCH 	 zer=0 op=HLT rd=1 l_ir=0 hlt=0 inc=0 l_ac=0 l_pc=0 wr=0
    5.0ns rst_=0 ph=INST_ADDR 	 zer=0 op=HLT rd=0 l_ir=0 hlt=0 inc=0 l_ac=0 l_pc=0 wr=0
   15.0ns rst_=1 ph=INST_ADDR 	 zer=0 op=HLT rd=0 l_ir=0 hlt=0 inc=0 l_ac=0 l_pc=0 wr=0
   20.0ns rst_=1 ph=INST_FETCH 	 zer=0 op=HLT rd=1 l_ir=0 hlt=0 inc=0 l_ac=0 l_pc=0 wr=0
   30.0ns rst_=1 ph=INST_LOAD 	 zer=0 op=HLT rd=1 l_ir=1 hlt=0 inc=0 l_ac=0 l_pc=0 wr=0
   40.0ns rst_=1 ph=IDLE 	 zer=0 op=HLT rd=1 l_ir=1 hlt=0 inc=0 l_ac=0 l_pc=0 wr=0
   50.0ns rst_=1 ph=OP_ADDR 	 zer=0 op=HLT rd=0 l_ir=0 hlt=1 inc=1 l_ac=0 l_pc=0 wr=0
   60.0ns rst_=1 ph=OP_FETCH 	 zer=0 op=HLT rd=0 l_ir=0 hlt=0 inc=0 l_ac=0 l_pc=0 wr=0
   70.0ns rst_=1 ph=ALU_OP 	 zer=0 op=HLT rd=0 l_ir=0 hlt=0 inc=0 l_ac=0 l_pc=0 wr=0
   80.0ns rst_=1 ph=STORE 	 zer=0 op=HLT rd=0 l_ir=0 hlt=0 inc=0 l_ac=0 l_pc=0 wr=0
   90.0ns rst_=1 ph=INST_ADDR 	 zer=0 op=HLT rd=0 l_ir=0 hlt=0 inc=0 l_ac=0 l_pc=0 wr=0
  100.0ns rst_=1 ph=INST_FETCH 	 zer=0 op=HLT rd=1 l_ir=0 hlt=0 inc=0 l_ac=0 l_pc=0 wr=0
  110.0ns rst_=1 ph=INST_LOAD 	 zer=0 op=HLT rd=1 l_ir=1 hlt=0 inc=0 l_ac=0 l_pc=0 wr=0
  120.0ns rst_=1 ph=IDLE 	 zer=0 op=HLT rd=1 l_ir=1 hlt=0 inc=0 l_ac=0 l_pc=0 wr=0
  130.0ns rst_=1 ph=OP_ADDR 	 zer=0 op=HLT rd=0 l_ir=0 hlt=1 inc=1 l_ac=0 l_pc=0 wr=0
  140.0ns rst_=1 ph=OP_FETCH 	 zer=0 op=HLT rd=0 l_ir=0 hlt=0 inc=0 l_ac=0 l_pc=0 wr=0
  150.0ns rst_=1 ph=ALU_OP 	 zer=0 op=HLT rd=0 l_ir=0 hlt=0 inc=0 l_ac=0 l_pc=0 wr=0
  160.0ns rst_=1 ph=STORE 	 zer=0 op=HLT rd=0 l_ir=0 hlt=0 inc=0 l_ac=0 l_pc=0 wr=0
  165.0ns rst_=1 ph=STORE 	 zer=0 op=SKZ rd=0 l_ir=0 hlt=0 inc=0 l_ac=0 l_pc=0 wr=0
  170.0ns rst_=1 ph=INST_ADDR 	 zer=0 op=SKZ rd=0 l_ir=0 hlt=0 inc=0 l_ac=0 l_pc=0 wr=0
  180.0ns rst_=1 ph=INST_FETCH 	 zer=0 op=SKZ rd=1 l_ir=0 hlt=0 inc=0 l_ac=0 l_pc=0 wr=0
  190.0ns rst_=1 ph=INST_LOAD 	 zer=0 op=SKZ rd=1 l_ir=1 hlt=0 inc=0 l_ac=0 l_pc=0 wr=0
  200.0ns rst_=1 ph=IDLE 	 zer=0 op=SKZ rd=1 l_ir=1 hlt=0 inc=0 l_ac=0 l_pc=0 wr=0
  210.0ns rst_=1 ph=OP_ADDR 	 zer=0 op=SKZ rd=0 l_ir=0 hlt=0 inc=1 l_ac=0 l_pc=0 wr=0
  220.0ns rst_=1 ph=OP_FETCH 	 zer=0 op=SKZ rd=0 l_ir=0 hlt=0 inc=0 l_ac=0 l_pc=0 wr=0
  230.0ns rst_=1 ph=ALU_OP 	 zer=0 op=SKZ rd=0 l_ir=0 hlt=0 inc=0 l_ac=0 l_pc=0 wr=0
  240.0ns rst_=1 ph=STORE 	 zer=0 op=SKZ rd=0 l_ir=0 hlt=0 inc=0 l_ac=0 l_pc=0 wr=0
  245.0ns rst_=1 ph=STORE 	 zer=0 op=ADD rd=1 l_ir=0 hlt=0 inc=0 l_ac=1 l_pc=0 wr=0
  250.0ns rst_=1 ph=INST_ADDR 	 zer=0 op=ADD rd=0 l_ir=0 hlt=0 inc=0 l_ac=0 l_pc=0 wr=0
  260.0ns rst_=1 ph=INST_FETCH 	 zer=0 op=ADD rd=1 l_ir=0 hlt=0 inc=0 l_ac=0 l_pc=0 wr=0
  270.0ns rst_=1 ph=INST_LOAD 	 zer=0 op=ADD rd=1 l_ir=1 hlt=0 inc=0 l_ac=0 l_pc=0 wr=0
  280.0ns rst_=1 ph=IDLE 	 zer=0 op=ADD rd=1 l_ir=1 hlt=0 inc=0 l_ac=0 l_pc=0 wr=0
  290.0ns rst_=1 ph=OP_ADDR 	 zer=0 op=ADD rd=0 l_ir=0 hlt=0 inc=1 l_ac=0 l_pc=0 wr=0
  300.0ns rst_=1 ph=OP_FETCH 	 zer=0 op=ADD rd=1 l_ir=0 hlt=0 inc=0 l_ac=0 l_pc=0 wr=0
  310.0ns rst_=1 ph=ALU_OP 	 zer=0 op=ADD rd=1 l_ir=0 hlt=0 inc=0 l_ac=1 l_pc=0 wr=0
  320.0ns rst_=1 ph=STORE 	 zer=0 op=ADD rd=1 l_ir=0 hlt=0 inc=0 l_ac=1 l_pc=0 wr=0
  325.0ns rst_=1 ph=STORE 	 zer=0 op=AND rd=1 l_ir=0 hlt=0 inc=0 l_ac=1 l_pc=0 wr=0
  330.0ns rst_=1 ph=INST_ADDR 	 zer=0 op=AND rd=0 l_ir=0 hlt=0 inc=0 l_ac=0 l_pc=0 wr=0
  340.0ns rst_=1 ph=INST_FETCH 	 zer=0 op=AND rd=1 l_ir=0 hlt=0 inc=0 l_ac=0 l_pc=0 wr=0
  350.0ns rst_=1 ph=INST_LOAD 	 zer=0 op=AND rd=1 l_ir=1 hlt=0 inc=0 l_ac=0 l_pc=0 wr=0
  360.0ns rst_=1 ph=IDLE 	 zer=0 op=AND rd=1 l_ir=1 hlt=0 inc=0 l_ac=0 l_pc=0 wr=0
  370.0ns rst_=1 ph=OP_ADDR 	 zer=0 op=AND rd=0 l_ir=0 hlt=0 inc=1 l_ac=0 l_pc=0 wr=0
  380.0ns rst_=1 ph=OP_FETCH 	 zer=0 op=AND rd=1 l_ir=0 hlt=0 inc=0 l_ac=0 l_pc=0 wr=0
  390.0ns rst_=1 ph=ALU_OP 	 zer=0 op=AND rd=1 l_ir=0 hlt=0 inc=0 l_ac=1 l_pc=0 wr=0
  400.0ns rst_=1 ph=STORE 	 zer=0 op=AND rd=1 l_ir=0 hlt=0 inc=0 l_ac=1 l_pc=0 wr=0
  405.0ns rst_=1 ph=STORE 	 zer=0 op=XOR rd=1 l_ir=0 hlt=0 inc=0 l_ac=1 l_pc=0 wr=0
  410.0ns rst_=1 ph=INST_ADDR 	 zer=0 op=XOR rd=0 l_ir=0 hlt=0 inc=0 l_ac=0 l_pc=0 wr=0
  420.0ns rst_=1 ph=INST_FETCH 	 zer=0 op=XOR rd=1 l_ir=0 hlt=0 inc=0 l_ac=0 l_pc=0 wr=0
  430.0ns rst_=1 ph=INST_LOAD 	 zer=0 op=XOR rd=1 l_ir=1 hlt=0 inc=0 l_ac=0 l_pc=0 wr=0
  440.0ns rst_=1 ph=IDLE 	 zer=0 op=XOR rd=1 l_ir=1 hlt=0 inc=0 l_ac=0 l_pc=0 wr=0
  450.0ns rst_=1 ph=OP_ADDR 	 zer=0 op=XOR rd=0 l_ir=0 hlt=0 inc=1 l_ac=0 l_pc=0 wr=0
  460.0ns rst_=1 ph=OP_FETCH 	 zer=0 op=XOR rd=1 l_ir=0 hlt=0 inc=0 l_ac=0 l_pc=0 wr=0
  470.0ns rst_=1 ph=ALU_OP 	 zer=0 op=XOR rd=1 l_ir=0 hlt=0 inc=0 l_ac=1 l_pc=0 wr=0
  480.0ns rst_=1 ph=STORE 	 zer=0 op=XOR rd=1 l_ir=0 hlt=0 inc=0 l_ac=1 l_pc=0 wr=0
  485.0ns rst_=1 ph=STORE 	 zer=0 op=LDA rd=1 l_ir=0 hlt=0 inc=0 l_ac=1 l_pc=0 wr=0
  490.0ns rst_=1 ph=INST_ADDR 	 zer=0 op=LDA rd=0 l_ir=0 hlt=0 inc=0 l_ac=0 l_pc=0 wr=0
  500.0ns rst_=1 ph=INST_FETCH 	 zer=0 op=LDA rd=1 l_ir=0 hlt=0 inc=0 l_ac=0 l_pc=0 wr=0
  510.0ns rst_=1 ph=INST_LOAD 	 zer=0 op=LDA rd=1 l_ir=1 hlt=0 inc=0 l_ac=0 l_pc=0 wr=0
  520.0ns rst_=1 ph=IDLE 	 zer=0 op=LDA rd=1 l_ir=1 hlt=0 inc=0 l_ac=0 l_pc=0 wr=0
  530.0ns rst_=1 ph=OP_ADDR 	 zer=0 op=LDA rd=0 l_ir=0 hlt=0 inc=1 l_ac=0 l_pc=0 wr=0
  540.0ns rst_=1 ph=OP_FETCH 	 zer=0 op=LDA rd=1 l_ir=0 hlt=0 inc=0 l_ac=0 l_pc=0 wr=0
  550.0ns rst_=1 ph=ALU_OP 	 zer=0 op=LDA rd=1 l_ir=0 hlt=0 inc=0 l_ac=1 l_pc=0 wr=0
  560.0ns rst_=1 ph=STORE 	 zer=0 op=LDA rd=1 l_ir=0 hlt=0 inc=0 l_ac=1 l_pc=0 wr=0
  565.0ns rst_=1 ph=STORE 	 zer=0 op=STO rd=0 l_ir=0 hlt=0 inc=0 l_ac=0 l_pc=0 wr=1
  570.0ns rst_=1 ph=INST_ADDR 	 zer=0 op=STO rd=0 l_ir=0 hlt=0 inc=0 l_ac=0 l_pc=0 wr=0
  580.0ns rst_=1 ph=INST_FETCH 	 zer=0 op=STO rd=1 l_ir=0 hlt=0 inc=0 l_ac=0 l_pc=0 wr=0
  590.0ns rst_=1 ph=INST_LOAD 	 zer=0 op=STO rd=1 l_ir=1 hlt=0 inc=0 l_ac=0 l_pc=0 wr=0
  600.0ns rst_=1 ph=IDLE 	 zer=0 op=STO rd=1 l_ir=1 hlt=0 inc=0 l_ac=0 l_pc=0 wr=0
  610.0ns rst_=1 ph=OP_ADDR 	 zer=0 op=STO rd=0 l_ir=0 hlt=0 inc=1 l_ac=0 l_pc=0 wr=0
  620.0ns rst_=1 ph=OP_FETCH 	 zer=0 op=STO rd=0 l_ir=0 hlt=0 inc=0 l_ac=0 l_pc=0 wr=0
  630.0ns rst_=1 ph=ALU_OP 	 zer=0 op=STO rd=0 l_ir=0 hlt=0 inc=0 l_ac=0 l_pc=0 wr=0
  640.0ns rst_=1 ph=STORE 	 zer=0 op=STO rd=0 l_ir=0 hlt=0 inc=0 l_ac=0 l_pc=0 wr=1
  645.0ns rst_=1 ph=STORE 	 zer=0 op=TMP rd=0 l_ir=0 hlt=0 inc=1 l_ac=0 l_pc=1 wr=0
  650.0ns rst_=1 ph=INST_ADDR 	 zer=0 op=TMP rd=0 l_ir=0 hlt=0 inc=0 l_ac=0 l_pc=0 wr=0
  660.0ns rst_=1 ph=INST_FETCH 	 zer=0 op=TMP rd=1 l_ir=0 hlt=0 inc=0 l_ac=0 l_pc=0 wr=0
  670.0ns rst_=1 ph=INST_LOAD 	 zer=0 op=TMP rd=1 l_ir=1 hlt=0 inc=0 l_ac=0 l_pc=0 wr=0
  680.0ns rst_=1 ph=IDLE 	 zer=0 op=TMP rd=1 l_ir=1 hlt=0 inc=0 l_ac=0 l_pc=0 wr=0
  690.0ns rst_=1 ph=OP_ADDR 	 zer=0 op=TMP rd=0 l_ir=0 hlt=0 inc=1 l_ac=0 l_pc=0 wr=0
  700.0ns rst_=1 ph=OP_FETCH 	 zer=0 op=TMP rd=0 l_ir=0 hlt=0 inc=0 l_ac=0 l_pc=0 wr=0
  710.0ns rst_=1 ph=ALU_OP 	 zer=0 op=TMP rd=0 l_ir=0 hlt=0 inc=0 l_ac=0 l_pc=1 wr=0
  720.0ns rst_=1 ph=STORE 	 zer=0 op=TMP rd=0 l_ir=0 hlt=0 inc=1 l_ac=0 l_pc=1 wr=0
  725.0ns rst_=1 ph=STORE 	 zer=1 op=HLT rd=0 l_ir=0 hlt=0 inc=0 l_ac=0 l_pc=0 wr=0
  730.0ns rst_=1 ph=INST_ADDR 	 zer=1 op=HLT rd=0 l_ir=0 hlt=0 inc=0 l_ac=0 l_pc=0 wr=0
  740.0ns rst_=1 ph=INST_FETCH 	 zer=1 op=HLT rd=1 l_ir=0 hlt=0 inc=0 l_ac=0 l_pc=0 wr=0
  750.0ns rst_=1 ph=INST_LOAD 	 zer=1 op=HLT rd=1 l_ir=1 hlt=0 inc=0 l_ac=0 l_pc=0 wr=0
  760.0ns rst_=1 ph=IDLE 	 zer=1 op=HLT rd=1 l_ir=1 hlt=0 inc=0 l_ac=0 l_pc=0 wr=0
  770.0ns rst_=1 ph=OP_ADDR 	 zer=1 op=HLT rd=0 l_ir=0 hlt=1 inc=1 l_ac=0 l_pc=0 wr=0
  780.0ns rst_=1 ph=OP_FETCH 	 zer=1 op=HLT rd=0 l_ir=0 hlt=0 inc=0 l_ac=0 l_pc=0 wr=0
  790.0ns rst_=1 ph=ALU_OP 	 zer=1 op=HLT rd=0 l_ir=0 hlt=0 inc=0 l_ac=0 l_pc=0 wr=0
  800.0ns rst_=1 ph=STORE 	 zer=1 op=HLT rd=0 l_ir=0 hlt=0 inc=0 l_ac=0 l_pc=0 wr=0
  805.0ns rst_=1 ph=STORE 	 zer=1 op=SKZ rd=0 l_ir=0 hlt=0 inc=0 l_ac=0 l_pc=0 wr=0
  810.0ns rst_=1 ph=INST_ADDR 	 zer=1 op=SKZ rd=0 l_ir=0 hlt=0 inc=0 l_ac=0 l_pc=0 wr=0
  820.0ns rst_=1 ph=INST_FETCH 	 zer=1 op=SKZ rd=1 l_ir=0 hlt=0 inc=0 l_ac=0 l_pc=0 wr=0
  830.0ns rst_=1 ph=INST_LOAD 	 zer=1 op=SKZ rd=1 l_ir=1 hlt=0 inc=0 l_ac=0 l_pc=0 wr=0
  840.0ns rst_=1 ph=IDLE 	 zer=1 op=SKZ rd=1 l_ir=1 hlt=0 inc=0 l_ac=0 l_pc=0 wr=0
  850.0ns rst_=1 ph=OP_ADDR 	 zer=1 op=SKZ rd=0 l_ir=0 hlt=0 inc=1 l_ac=0 l_pc=0 wr=0
  860.0ns rst_=1 ph=OP_FETCH 	 zer=1 op=SKZ rd=0 l_ir=0 hlt=0 inc=0 l_ac=0 l_pc=0 wr=0
  870.0ns rst_=1 ph=ALU_OP 	 zer=1 op=SKZ rd=0 l_ir=0 hlt=0 inc=1 l_ac=0 l_pc=0 wr=0
  880.0ns rst_=1 ph=STORE 	 zer=1 op=SKZ rd=0 l_ir=0 hlt=0 inc=0 l_ac=0 l_pc=0 wr=0
  885.0ns rst_=1 ph=STORE 	 zer=1 op=ADD rd=1 l_ir=0 hlt=0 inc=0 l_ac=1 l_pc=0 wr=0
  890.0ns rst_=1 ph=INST_ADDR 	 zer=1 op=ADD rd=0 l_ir=0 hlt=0 inc=0 l_ac=0 l_pc=0 wr=0
  900.0ns rst_=1 ph=INST_FETCH 	 zer=1 op=ADD rd=1 l_ir=0 hlt=0 inc=0 l_ac=0 l_pc=0 wr=0
  910.0ns rst_=1 ph=INST_LOAD 	 zer=1 op=ADD rd=1 l_ir=1 hlt=0 inc=0 l_ac=0 l_pc=0 wr=0
  920.0ns rst_=1 ph=IDLE 	 zer=1 op=ADD rd=1 l_ir=1 hlt=0 inc=0 l_ac=0 l_pc=0 wr=0
  930.0ns rst_=1 ph=OP_ADDR 	 zer=1 op=ADD rd=0 l_ir=0 hlt=0 inc=1 l_ac=0 l_pc=0 wr=0
  940.0ns rst_=1 ph=OP_FETCH 	 zer=1 op=ADD rd=1 l_ir=0 hlt=0 inc=0 l_ac=0 l_pc=0 wr=0
  950.0ns rst_=1 ph=ALU_OP 	 zer=1 op=ADD rd=1 l_ir=0 hlt=0 inc=0 l_ac=1 l_pc=0 wr=0
  960.0ns rst_=1 ph=STORE 	 zer=1 op=ADD rd=1 l_ir=0 hlt=0 inc=0 l_ac=1 l_pc=0 wr=0
  965.0ns rst_=1 ph=STORE 	 zer=1 op=AND rd=1 l_ir=0 hlt=0 inc=0 l_ac=1 l_pc=0 wr=0
  970.0ns rst_=1 ph=INST_ADDR 	 zer=1 op=AND rd=0 l_ir=0 hlt=0 inc=0 l_ac=0 l_pc=0 wr=0
  980.0ns rst_=1 ph=INST_FETCH 	 zer=1 op=AND rd=1 l_ir=0 hlt=0 inc=0 l_ac=0 l_pc=0 wr=0
  990.0ns rst_=1 ph=INST_LOAD 	 zer=1 op=AND rd=1 l_ir=1 hlt=0 inc=0 l_ac=0 l_pc=0 wr=0
 1000.0ns rst_=1 ph=IDLE 	 zer=1 op=AND rd=1 l_ir=1 hlt=0 inc=0 l_ac=0 l_pc=0 wr=0
 1010.0ns rst_=1 ph=OP_ADDR 	 zer=1 op=AND rd=0 l_ir=0 hlt=0 inc=1 l_ac=0 l_pc=0 wr=0
 1020.0ns rst_=1 ph=OP_FETCH 	 zer=1 op=AND rd=1 l_ir=0 hlt=0 inc=0 l_ac=0 l_pc=0 wr=0
 1030.0ns rst_=1 ph=ALU_OP 	 zer=1 op=AND rd=1 l_ir=0 hlt=0 inc=0 l_ac=1 l_pc=0 wr=0
 1040.0ns rst_=1 ph=STORE 	 zer=1 op=AND rd=1 l_ir=0 hlt=0 inc=0 l_ac=1 l_pc=0 wr=0
 1045.0ns rst_=1 ph=STORE 	 zer=1 op=XOR rd=1 l_ir=0 hlt=0 inc=0 l_ac=1 l_pc=0 wr=0
 1050.0ns rst_=1 ph=INST_ADDR 	 zer=1 op=XOR rd=0 l_ir=0 hlt=0 inc=0 l_ac=0 l_pc=0 wr=0
 1060.0ns rst_=1 ph=INST_FETCH 	 zer=1 op=XOR rd=1 l_ir=0 hlt=0 inc=0 l_ac=0 l_pc=0 wr=0
 1070.0ns rst_=1 ph=INST_LOAD 	 zer=1 op=XOR rd=1 l_ir=1 hlt=0 inc=0 l_ac=0 l_pc=0 wr=0
 1080.0ns rst_=1 ph=IDLE 	 zer=1 op=XOR rd=1 l_ir=1 hlt=0 inc=0 l_ac=0 l_pc=0 wr=0
 1090.0ns rst_=1 ph=OP_ADDR 	 zer=1 op=XOR rd=0 l_ir=0 hlt=0 inc=1 l_ac=0 l_pc=0 wr=0
 1100.0ns rst_=1 ph=OP_FETCH 	 zer=1 op=XOR rd=1 l_ir=0 hlt=0 inc=0 l_ac=0 l_pc=0 wr=0
 1110.0ns rst_=1 ph=ALU_OP 	 zer=1 op=XOR rd=1 l_ir=0 hlt=0 inc=0 l_ac=1 l_pc=0 wr=0
 1120.0ns rst_=1 ph=STORE 	 zer=1 op=XOR rd=1 l_ir=0 hlt=0 inc=0 l_ac=1 l_pc=0 wr=0
 1125.0ns rst_=1 ph=STORE 	 zer=1 op=LDA rd=1 l_ir=0 hlt=0 inc=0 l_ac=1 l_pc=0 wr=0
 1130.0ns rst_=1 ph=INST_ADDR 	 zer=1 op=LDA rd=0 l_ir=0 hlt=0 inc=0 l_ac=0 l_pc=0 wr=0
 1140.0ns rst_=1 ph=INST_FETCH 	 zer=1 op=LDA rd=1 l_ir=0 hlt=0 inc=0 l_ac=0 l_pc=0 wr=0
 1150.0ns rst_=1 ph=INST_LOAD 	 zer=1 op=LDA rd=1 l_ir=1 hlt=0 inc=0 l_ac=0 l_pc=0 wr=0
 1160.0ns rst_=1 ph=IDLE 	 zer=1 op=LDA rd=1 l_ir=1 hlt=0 inc=0 l_ac=0 l_pc=0 wr=0
 1170.0ns rst_=1 ph=OP_ADDR 	 zer=1 op=LDA rd=0 l_ir=0 hlt=0 inc=1 l_ac=0 l_pc=0 wr=0
 1180.0ns rst_=1 ph=OP_FETCH 	 zer=1 op=LDA rd=1 l_ir=0 hlt=0 inc=0 l_ac=0 l_pc=0 wr=0
 1190.0ns rst_=1 ph=ALU_OP 	 zer=1 op=LDA rd=1 l_ir=0 hlt=0 inc=0 l_ac=1 l_pc=0 wr=0
 1200.0ns rst_=1 ph=STORE 	 zer=1 op=LDA rd=1 l_ir=0 hlt=0 inc=0 l_ac=1 l_pc=0 wr=0
 1205.0ns rst_=1 ph=STORE 	 zer=1 op=STO rd=0 l_ir=0 hlt=0 inc=0 l_ac=0 l_pc=0 wr=1
 1210.0ns rst_=1 ph=INST_ADDR 	 zer=1 op=STO rd=0 l_ir=0 hlt=0 inc=0 l_ac=0 l_pc=0 wr=0
 1220.0ns rst_=1 ph=INST_FETCH 	 zer=1 op=STO rd=1 l_ir=0 hlt=0 inc=0 l_ac=0 l_pc=0 wr=0
 1230.0ns rst_=1 ph=INST_LOAD 	 zer=1 op=STO rd=1 l_ir=1 hlt=0 inc=0 l_ac=0 l_pc=0 wr=0
 1240.0ns rst_=1 ph=IDLE 	 zer=1 op=STO rd=1 l_ir=1 hlt=0 inc=0 l_ac=0 l_pc=0 wr=0
 1250.0ns rst_=1 ph=OP_ADDR 	 zer=1 op=STO rd=0 l_ir=0 hlt=0 inc=1 l_ac=0 l_pc=0 wr=0
 1260.0ns rst_=1 ph=OP_FETCH 	 zer=1 op=STO rd=0 l_ir=0 hlt=0 inc=0 l_ac=0 l_pc=0 wr=0
 1270.0ns rst_=1 ph=ALU_OP 	 zer=1 op=STO rd=0 l_ir=0 hlt=0 inc=0 l_ac=0 l_pc=0 wr=0
 1280.0ns rst_=1 ph=STORE 	 zer=1 op=STO rd=0 l_ir=0 hlt=0 inc=0 l_ac=0 l_pc=0 wr=1
 1285.0ns rst_=1 ph=STORE 	 zer=1 op=TMP rd=0 l_ir=0 hlt=0 inc=1 l_ac=0 l_pc=1 wr=0
 1290.0ns rst_=1 ph=INST_ADDR 	 zer=1 op=TMP rd=0 l_ir=0 hlt=0 inc=0 l_ac=0 l_pc=0 wr=0
 1300.0ns rst_=1 ph=INST_FETCH 	 zer=1 op=TMP rd=1 l_ir=0 hlt=0 inc=0 l_ac=0 l_pc=0 wr=0
 1310.0ns rst_=1 ph=INST_LOAD 	 zer=1 op=TMP rd=1 l_ir=1 hlt=0 inc=0 l_ac=0 l_pc=0 wr=0
 1320.0ns rst_=1 ph=IDLE 	 zer=1 op=TMP rd=1 l_ir=1 hlt=0 inc=0 l_ac=0 l_pc=0 wr=0
 1330.0ns rst_=1 ph=OP_ADDR 	 zer=1 op=TMP rd=0 l_ir=0 hlt=0 inc=1 l_ac=0 l_pc=0 wr=0
 1340.0ns rst_=1 ph=OP_FETCH 	 zer=1 op=TMP rd=0 l_ir=0 hlt=0 inc=0 l_ac=0 l_pc=0 wr=0
 1350.0ns rst_=1 ph=ALU_OP 	 zer=1 op=TMP rd=0 l_ir=0 hlt=0 inc=0 l_ac=0 l_pc=1 wr=0
 1360.0ns rst_=1 ph=STORE 	 zer=1 op=TMP rd=0 l_ir=0 hlt=0 inc=1 l_ac=0 l_pc=1 wr=0
 1365.0ns rst_=1 ph=STORE 	 zer=0 op=HLT rd=0 l_ir=0 hlt=0 inc=0 l_ac=0 l_pc=0 wr=0
 1370.0ns rst_=1 ph=INST_ADDR 	 zer=0 op=HLT rd=0 l_ir=0 hlt=0 inc=0 l_ac=0 l_pc=0 wr=0
 1380.0ns rst_=1 ph=INST_FETCH 	 zer=0 op=HLT rd=1 l_ir=0 hlt=0 inc=0 l_ac=0 l_pc=0 wr=0
 1390.0ns rst_=1 ph=INST_LOAD 	 zer=0 op=HLT rd=1 l_ir=1 hlt=0 inc=0 l_ac=0 l_pc=0 wr=0
 1400.0ns rst_=1 ph=IDLE 	 zer=0 op=HLT rd=1 l_ir=1 hlt=0 inc=0 l_ac=0 l_pc=0 wr=0
 1410.0ns rst_=1 ph=OP_ADDR 	 zer=0 op=HLT rd=0 l_ir=0 hlt=1 inc=1 l_ac=0 l_pc=0 wr=0
 1420.0ns rst_=1 ph=OP_FETCH 	 zer=0 op=HLT rd=0 l_ir=0 hlt=0 inc=0 l_ac=0 l_pc=0 wr=0
 1430.0ns rst_=1 ph=ALU_OP 	 zer=0 op=HLT rd=0 l_ir=0 hlt=0 inc=0 l_ac=0 l_pc=0 wr=0
 1440.0ns rst_=1 ph=STORE 	 zer=0 op=HLT rd=0 l_ir=0 hlt=0 inc=0 l_ac=0 l_pc=0 wr=0
 1445.0ns rst_=1 ph=STORE 	 zer=0 op=SKZ rd=0 l_ir=0 hlt=0 inc=0 l_ac=0 l_pc=0 wr=0
 1450.0ns rst_=1 ph=INST_ADDR 	 zer=0 op=SKZ rd=0 l_ir=0 hlt=0 inc=0 l_ac=0 l_pc=0 wr=0
 1460.0ns rst_=1 ph=INST_FETCH 	 zer=0 op=SKZ rd=1 l_ir=0 hlt=0 inc=0 l_ac=0 l_pc=0 wr=0
 1470.0ns rst_=1 ph=INST_LOAD 	 zer=0 op=SKZ rd=1 l_ir=1 hlt=0 inc=0 l_ac=0 l_pc=0 wr=0
 1480.0ns rst_=1 ph=IDLE 	 zer=0 op=SKZ rd=1 l_ir=1 hlt=0 inc=0 l_ac=0 l_pc=0 wr=0
 1490.0ns rst_=1 ph=OP_ADDR 	 zer=0 op=SKZ rd=0 l_ir=0 hlt=0 inc=1 l_ac=0 l_pc=0 wr=0
 1500.0ns rst_=1 ph=OP_FETCH 	 zer=0 op=SKZ rd=0 l_ir=0 hlt=0 inc=0 l_ac=0 l_pc=0 wr=0
 1510.0ns rst_=1 ph=ALU_OP 	 zer=0 op=SKZ rd=0 l_ir=0 hlt=0 inc=0 l_ac=0 l_pc=0 wr=0
 1520.0ns rst_=1 ph=STORE 	 zer=0 op=SKZ rd=0 l_ir=0 hlt=0 inc=0 l_ac=0 l_pc=0 wr=0
 1525.0ns rst_=1 ph=STORE 	 zer=0 op=ADD rd=1 l_ir=0 hlt=0 inc=0 l_ac=1 l_pc=0 wr=0
 1530.0ns rst_=1 ph=INST_ADDR 	 zer=0 op=ADD rd=0 l_ir=0 hlt=0 inc=0 l_ac=0 l_pc=0 wr=0
 1540.0ns rst_=1 ph=INST_FETCH 	 zer=0 op=ADD rd=1 l_ir=0 hlt=0 inc=0 l_ac=0 l_pc=0 wr=0
 1550.0ns rst_=1 ph=INST_LOAD 	 zer=0 op=ADD rd=1 l_ir=1 hlt=0 inc=0 l_ac=0 l_pc=0 wr=0
 1560.0ns rst_=1 ph=IDLE 	 zer=0 op=ADD rd=1 l_ir=1 hlt=0 inc=0 l_ac=0 l_pc=0 wr=0
 1570.0ns rst_=1 ph=OP_ADDR 	 zer=0 op=ADD rd=0 l_ir=0 hlt=0 inc=1 l_ac=0 l_pc=0 wr=0
 1580.0ns rst_=1 ph=OP_FETCH 	 zer=0 op=ADD rd=1 l_ir=0 hlt=0 inc=0 l_ac=0 l_pc=0 wr=0
 1590.0ns rst_=1 ph=ALU_OP 	 zer=0 op=ADD rd=1 l_ir=0 hlt=0 inc=0 l_ac=1 l_pc=0 wr=0
 1600.0ns rst_=1 ph=STORE 	 zer=0 op=ADD rd=1 l_ir=0 hlt=0 inc=0 l_ac=1 l_pc=0 wr=0
 1605.0ns rst_=1 ph=STORE 	 zer=0 op=AND rd=1 l_ir=0 hlt=0 inc=0 l_ac=1 l_pc=0 wr=0
